7-enrichment-analysis.RMD
…
meta

## # A tibble: 24,127 x 9
##    X1     TE.fixed pval.fixed  tau2    I2    pval.Q num_exp qval.fixed    qval.Q
##    <chr>     <dbl>      <dbl> <dbl> <dbl>     <dbl>   <dbl>      <dbl>     <dbl>
##  1 IL1R2   -0.387    1.24e-10 2.31  0.984 2.45e-131      11   1.25e- 8 5.91e-127
##  2 SLCO4  -0.882    2.53e-36 1.46  0.981 9.98e- 95      10   3.06e-32 8.03e- 91
##  3 FKBP5   -0.261    1.50e- 7 1.10  0.981 1.88e-109      11   4.90e- 6 2.27e-105
##  4 SH3PX  -0.0908   2.62e- 2 0.415 0.979 1.05e- 78       9   8.69e- 2 5.08e- 75
##  5 GALNT  -0.756    1.54e-28 0.819 0.980 1.66e- 41       5   6.20e-25 1.08e- 38
##  6 IRAK3   -0.250    4.03e-10 0.393 0.972 3.64e- 58       9   3.36e- 8 8.77e- 55
##  7 TIMP4   -0.0931   3.55e- 2 0.555 0.969 2.42e- 64      11   1.09e- 1 7.30e- 61
##  8 CEACA  -0.0948   2.72e- 3 0.373 0.968 9.96e- 56      10   1.51e- 2 1.85e- 52
##  9 SULT1  -0.0438   1.88e- 1 0.585 0.969 2.41e- 56      10   3.60e- 1 5.29e- 53
## 10 ITGA10  -0.424    1.85e-22 0.257 0.955 2.00e- 34       9   6.37e-19 7.54e- 32
## #  with 24,117 more rows
…
