7-Blood-enrichment-analysis.RMD
…
meta

## # A tibble: 41,093 x 10
##    genes          QEp estimate    pval     se    H2    tau2    I2 num_exp   qval
##    <chr>        <dbl>    <dbl>   <dbl>  <dbl> <dbl>   <dbl> <dbl>   <dbl>  <dbl>
##  1 PRELID1   1.20e- 2   0.135  9.35e-4 0.0408  2.85 0.00465  64.9       5 0.0198
##  2 SGMS2     2.18e- 3   0.301  2.31e-2 0.132   9.32 0.0671   89.3       5 0.176 
##  3 PID1      1.74e- 3   0.196  1.26e-1 0.128   8.47 0.0654   88.2       5 0.453 
##  4 PRRC2C    4.63e- 6  -0.0526 4.57e-1 0.0708  7.35 0.0194   86.4       5 0.772 
##  5 MGST1     1.20e- 3   0.185  1.71e-1 0.136   8.14 0.0772   87.7       5 0.522 
##  6 ACE       1.88e- 5  -0.108  3.59e-1 0.118  15.3  0.0551   93.5       5 0.706 
##  7 SOGA1     1.59e- 6  -0.0835 3.86e-1 0.0964 13.9  0.0376   92.8       5 0.726 
##  8 SLPI      9.81e-10   0.262  4.06e-1 0.315  29.3  0.463    96.6       5 0.738 
##  9 CD36      9.77e- 5   0.270  9.75e-2 0.163  32.4  0.115    96.9       5 0.398 
## 10 ARMC2-AS1 3.04e- 3   0.207  6.33e-2 0.111   6.35 0.0281   84.3       3 0.316 
## #  with 41,083 more rows
…
