6-meta-analysis.RMD
…
We first check pvalues histograms. Ref

FC <- str_subset(colnames(full_tables),"logFC")

# Genes with a adjusted p value
adjp <- full_tables %>%
  filter(GENE.SYMBOL != "NA") %>%
  gather("GSE"  ,"adjP",-GENE.SYMBOL) %>%
  filter(GSE %in% str_subset(colnames(full_tables),"adj.P.Val|padj")) %>%
  mutate(GSE=gsub(".*_","",GSE))
  
adjp

## # A tibble: 265,419 x 3
##    GENE.SYMBOL GSE          adjP
##    <chr>       <chr>       <dbl>
##  1 IL1R2       GSE27597 1.57e-31
##  2 SLCO4A1     GSE27597 7.88e-31
##  3 FKBP5       GSE27597 2.29e-29
##  4 SH3PXD2B    GSE27597 8.67e-24
##  5 GALNTL2     GSE27597 1.81e-23
##  6 IRAK3       GSE27597 2.83e-23
##  7 TIMP4       GSE27597 5.20e-22
##  8 CEACAM4     GSE27597 6.94e-22
##  9 SULT1B1     GSE27597 1.99e-21
## 10 ITGA10      GSE27597 3.21e-21
## #  with 265,409 more rows
…
#dev.off()

adj_pvalue <- 0.5
adjp <- filter(adjp,adjP < adj_pvalue)
unique(adjp$GSE)

## [1] "GSE27597"  "GSE106986" "GSE57148"  "GSE47460"  "GSE38974"  "GSE8581"  
## [7] "GSE1650"   "GSE1122"   "GSE124180"

adjp

## # A tibble: 81,919 x 3
##    GENE.SYMBOL GSE          adjP
##    <chr>       <chr>       <dbl>
##  1 IL1R2       GSE27597 1.57e-31
##  2 SLCO4A1     GSE27597 7.88e-31
##  3 FKBP5       GSE27597 2.29e-29
##  4 SH3PXD2B    GSE27597 8.67e-24
##  5 GALNTL2     GSE27597 1.81e-23
##  6 IRAK3       GSE27597 2.83e-23
##  7 TIMP4       GSE27597 5.20e-22
##  8 CEACAM4     GSE27597 6.94e-22
##  9 SULT1B1     GSE27597 1.99e-21
## 10 ITGA10      GSE27597 3.21e-21
## #  with 81,909 more rows

Then, we look for how many genes are up regulated with a p-value less than 0.5 in the

# log fold change
logFC <- full_tables %>%
  filter(GENE.SYMBOL != "NA") %>%
  gather("GSE"  ,"logFC",-GENE.SYMBOL) %>%
  filter(GSE %in% str_subset(colnames(full_tables),"logFC")) %>% 
  mutate(GSE=gsub(".*_","",GSE))

logFC

## # A tibble: 265,419 x 3
##    GENE.SYMBOL GSE      logFC
##    <chr>       <chr>    <dbl>
##  1 IL1R2       GSE27597 -4.00
##  2 SLCO4A1     GSE27597 -2.83
##  3 FKBP5       GSE27597 -2.69
##  4 SH3PXD2B    GSE27597 -1.55
##  5 GALNTL2     GSE27597 -1.68
##  6 IRAK3       GSE27597 -1.58
##  7 TIMP4       GSE27597 -1.84
##  8 CEACAM4     GSE27597 -1.64
##  9 SULT1B1     GSE27597 -2.10
## 10 ITGA10      GSE27597 -1.26
## #  with 265,409 more rows

# recovering logFC values from genes with p value less than 0.01 

ap <- left_join(adjp,logFC,by = c("GENE.SYMBOL" = "GENE.SYMBOL", "GSE" = "GSE")) %>%
  select(-adjP) %>%
  spread(GSE,logFC) %>% 
  replace(is.na(.), 0)

ap

## # A tibble: 23,159 x 10
##    GENE.SYMBOL GSE106986 GSE1122 GSE124180 GSE1650 GSE27597 GSE38974 GSE47460
##    <chr>           <dbl>   <dbl>     <dbl>   <dbl>    <dbl>    <dbl>    <dbl>
##  1 A1BG          -0.377        0         0       0   0.0915    0.437   0     
##  2 A1BG-AS1       0.212        0         0       0   0         0       0     
##  3 A1CF          -0.265        0         0       0   0         0       0     
##  4 A2LD1          0.191        0         0       0   0.0893    0       0     
##  5 A2M            1.11         0         0       0   0.130    -0.335  -0.0848
##  6 A2M-AS1        0            0         0       0   0         0       0     
##  7 A2ML1         -0.0526       0         0       0   0         0.160   0     
##  8 A2MP1          0            0         0       0   0         0       0     
##  9 A3GALT2        0            0         0       0   0         0       0     
## 10 A4GALT         0.287        0         0       0  -0.322     0       0     
## #  with 23,149 more rows, and 2 more variables: GSE57148 <dbl>, GSE8581 <dbl>
…
