7-enrichment-analysis.RMD
…
meta

## # A tibble: 24,129 x 10
##    genes          QEp estimate   pval    se    H2  tau2    I2 num_exp  qval
##    <chr>        <dbl>    <dbl>  <dbl> <dbl> <dbl> <dbl> <dbl>   <dbl> <dbl>
##  1 IL1R2    2.45e-131  -0.0729 0.877  0.469  53.0 2.31   98.1      11 0.968
##  2 SLCO4A1  9.98e- 95   0.107  0.791  0.406  27.3 1.46   96.3      10 0.941
##  3 FKBP5    1.88e-109   0.0127 0.969  0.330  36.4 1.10   97.3      11 0.994
##  4 SH3PXD2B 1.05e- 78   0.0529 0.812  0.222  26.5 0.415  96.2       9 0.949
##  5 GALNTL2  1.66e- 41  -0.122  0.770  0.418  29.7 0.819  96.6       5 0.936
##  6 IRAK3    3.64e- 58  -0.0301 0.890  0.217  25.8 0.393  96.1       9 0.972
##  7 TIMP4    2.42e- 64   0.0744 0.749  0.233  25.3 0.555  96.1      11 0.931
##  8 CEACAM4  9.96e- 56  -0.0384 0.851  0.205  36.3 0.373  97.2      10 0.960
##  9 SULT1B1  2.41e- 56  -0.0524 0.834  0.250  50.2 0.585  98.0      10 0.955
## 10 ITGA10   2.00e- 34  -0.356  0.0517 0.183  14.4 0.257  93.1       9 0.413
## #  with 24,119 more rows
…
