Meta-analysis
…
colnames(full_tables)[colnames(full_tables) == 'log2FoldChange_GSE57148'] <- 'logFC_GSE57148'
full_tables

## # A tibble: 35,275 x 29
##    Gene.Symbol logFC_GSE1122 adj.P.Val_GSE11 CI.L_GSE1122 CI.R_GSE1122
##    <chr>               <dbl>            <dbl>        <dbl>        <dbl>
##  1 ACVRL1             -1.47           0.00831       -1.87        -1.07 
##  2 EVI2A               0.769          0.00975        0.543        0.996
##  3 USP13              -0.905          0.00975       -1.18        -0.629
##  4 ABCD3              -0.635          0.0117        -0.838       -0.432
##  5 TYMS                0.935          0.0117         0.633        1.24 
##  6 SLC25A4            -0.655          0.0131        -0.875       -0.436
##  7 NUCB1               0.506          0.0131         0.336        0.677
##  8 AKAP1              -0.783          0.0179        -1.06        -0.509
##  9 PSMC1              -0.801          0.0186        -1.09        -0.517
## 10 KIF14               0.561          0.0218         0.352        0.770
## #  with 35,265 more rows, and 24 more variables: logFC_GSE1650 <dbl>,
## #   adj.P.Val_GSE1650 <dbl>, CI.L_GSE1650 <dbl>, CI.R_GSE1650 <dbl>,
## #   logFC_GSE27597 <dbl>, adj.P.Val_GSE27597 <dbl>, CI.L_GSE27597 <dbl>,
## #   CI.R_GSE27597 <dbl>, logFC_GSE37768 <dbl>, adj.P.Val_GSE37768 <dbl>,
## #   CI.L_GSE37768 <dbl>, CI.R_GSE37768 <dbl>, logFC_GSE47460 <dbl>,
## #   adj.P.Val_GSE47460 <dbl>, CI.L_GSE47460 <dbl>, CI.R_GSE47460 <dbl>,
## #   logFC_GSE57148 <dbl>, padj_GSE57148 <dbl>, CI.L_GSE57148 <dbl>,
## #   CI.R_GSE57148 <dbl>, logFC_GSE8581 <dbl>, adj.P.Val_GSE8581 <dbl>,
## #   CI.L_GSE8581 <dbl>, CI.R_GSE8581 <dbl>
…
We first check pvalues histograms.

FC <- str_subset(colnames(full_tables),"logFC")

# Genes with a adjusted p value

adjp <- full_tables %>%
  filter(Gene.Symbol != "NA") %>%
  gather("GSE"  ,"adjP",-Gene.Symbol) %>%
  filter(GSE %in% str_subset(colnames(full_tables),"adj.P.Val|padj")) %>%
  mutate(GSE=gsub(".*_","",GSE))
  
adjp

## # A tibble: 246,918 x 3
##    Gene.Symbol GSE        adjP
##    <chr>       <chr>     <dbl>
##  1 ACVRL1      GSE1122 0.00831
##  2 EVI2A       GSE1122 0.00975
##  3 USP13       GSE1122 0.00975
##  4 ABCD3       GSE1122 0.0117 
##  5 TYMS        GSE1122 0.0117 
##  6 SLC25A4     GSE1122 0.0131 
##  7 NUCB1       GSE1122 0.0131 
##  8 AKAP1       GSE1122 0.0179 
##  9 PSMC1       GSE1122 0.0186 
## 10 KIF14       GSE1122 0.0218 
## #  with 246,908 more rows
…
#dev.off()

adj_pvalue <- 0.5
adjp <- filter(adjp,adjP < adj_pvalue)
adjp

## # A tibble: 56,711 x 3
##    Gene.Symbol GSE        adjP
##    <chr>       <chr>     <dbl>
##  1 ACVRL1      GSE1122 0.00831
##  2 EVI2A       GSE1122 0.00975
##  3 USP13       GSE1122 0.00975
##  4 ABCD3       GSE1122 0.0117 
##  5 TYMS        GSE1122 0.0117 
##  6 SLC25A4     GSE1122 0.0131 
##  7 NUCB1       GSE1122 0.0131 
##  8 AKAP1       GSE1122 0.0179 
##  9 PSMC1       GSE1122 0.0186 
## 10 KIF14       GSE1122 0.0218 
## #  with 56,701 more rows

Then, we look for how many genes are up regulated with a p-value less than 0.5 in the

# log fold change
logFC <- full_tables %>%
  filter(Gene.Symbol != "NA") %>%
  gather("GSE"  ,"logFC",-Gene.Symbol) %>%
  filter(GSE %in% str_subset(colnames(full_tables),"logFC")) %>% 
  mutate(GSE=gsub(".*_","",GSE))

logFC

## # A tibble: 246,918 x 3
##    Gene.Symbol GSE      logFC
##    <chr>       <chr>    <dbl>
##  1 ACVRL1      GSE1122 -1.47 
##  2 EVI2A       GSE1122  0.769
##  3 USP13       GSE1122 -0.905
##  4 ABCD3       GSE1122 -0.635
##  5 TYMS        GSE1122  0.935
##  6 SLC25A4     GSE1122 -0.655
##  7 NUCB1       GSE1122  0.506
##  8 AKAP1       GSE1122 -0.783
##  9 PSMC1       GSE1122 -0.801
## 10 KIF14       GSE1122  0.561
## #  with 246,908 more rows

# recovering logFC values from genes with p value less than 0.01 

ap0.01 <- left_join(adjp,logFC,by = c("Gene.Symbol" = "Gene.Symbol", "GSE" = "GSE")) %>%
  select(-adjP) %>%
  spread(GSE,logFC) %>% 
  replace(is.na(.), 0)

ap0.01

## # A tibble: 26,380 x 7
##    Gene.Symbol GSE1122 GSE1650 GSE27597 GSE47460 GSE57148 GSE8581
##    <chr>         <dbl>   <dbl>    <dbl>    <dbl>    <dbl>   <dbl>
##  1 A1BG              0   0       0.0915   0        -0.173  0     
##  2 A1BG-AS1          0   0       0        0        -0.226  0     
##  3 A1CF              0   0       0        0         0      0.221 
##  4 A2LD1             0   0       0.0893   0         0      0     
##  5 A2M               0   0.356   0.130   -0.0827    0.181 -0.117 
##  6 A2M-AS1           0   0       0        0        -0.937 -0.387 
##  7 A2ML1             0   0       0       -0.105     0     -0.0871
##  8 A2MP1             0   0       0        0         0      0.280 
##  9 A3GALT2           0   0       0        0         0.536  0     
## 10 A4GALT            0   0      -0.322    0.372     0      0     
## #  with 26,370 more rows
…
